
                                                 __  __      _ 
     /\                                         |  \/  |    | |
    /  \__      _____ ___  ___  _ __ ___   ___  | \  / | ___| |
   / /\ \ \ /\ / / _ / __|/ _ \| '_ ` _ \ / _ \ | |\/| |/ _ | |
  / ____ \ V  V |  __\__ | (_) | | | | | |  __/ | |  | |  __|_|
 /_/    \_\_/\_/ \___|___/\___/|_| |_| |_|\___| |_|  |_|\___(_)
                                                               
                                                               

